…
Using _V_ = 3 is a good choice to illustrate cross-validation but is a poor choice in practice because it is too low to generate reliable estimates. In practice, values of _V_ are most often 5 or 10; we generally prefer 10-fold cross-validation as a default because it is large enough for good results in most situations. 

:::rmdnote
What are the effects of changing _V_? Larger values result in resampling estimates with small bias but substantial variance. Smaller values of _V_ have large bias but low variance. We prefer 10-fold since noise is reduced by replication, but bias is not.^[See Section 3.4 of @fes for a longer description of the results of change _V_: <https://bookdown.org/max/FES/resampling.html>]. 
:::

The primary input is the training set data frame as well as the number of folds (defaulting to 10): 


```r
set.seed(1001)
ames_folds <- vfold_cv(ames_train, v = 10)
ames_folds
#> #  10-fold cross-validation 
#> # A tibble: 10 × 2
#>   splits             id    
#>   <list>             <chr> 
#> 1 <split [2107/235]> Fold01
#> 2 <split [2107/235]> Fold02
#> 3 <split [2108/234]> Fold03
#> 4 <split [2108/234]> Fold04
#> 5 <split [2108/234]> Fold05
#> 6 <split [2108/234]> Fold06
#> # … with 4 more rows
```
…
<div class="figure" style="text-align: center">
<img src="figures/variance-reduction-1.png" alt="The relationship between the relative variance in performance estimates versus the number of cross-validation repeats. As the repeats increase, the variance is reduced in a harmonically decreasing pattern with diminishing returns for large number of replicates."  />
<p class="caption">(\#fig:variance-reduction)Relationship between the relative variance in performance estimates versus the number of cross-validation repeats.</p>
</div>

Larger number of replicates tend to have less impact on the standard error. However, if the baseline value of $\sigma$ is impractically large, the diminishing returns on replication may still be worth the extra computational costs. 

To create repeats, invoke `vfold_cv()` with an additional argument `repeats`: 


```r
vfold_cv(ames_train, v = 10, repeats = 5)
#> #  10-fold cross-validation repeated 5 times 
#> # A tibble: 50 × 3
#>   splits             id      id2   
#>   <list>             <chr>   <chr> 
#> 1 <split [2107/235]> Repeat1 Fold01
#> 2 <split [2107/235]> Repeat1 Fold02
#> 3 <split [2108/234]> Repeat1 Fold03
#> 4 <split [2108/234]> Repeat1 Fold04
#> 5 <split [2108/234]> Repeat1 Fold05
#> 6 <split [2108/234]> Repeat1 Fold06
#> # … with 44 more rows
```
### Leave-one-out cross-validation {-}

One variation of cross-validation is leave-one-out (LOO) cross-validation where _V_ is the number of data points in the training set. If there are $n$ training set samples, $n$ models are fit using $n-1$ rows of the training set. Each model predicts the single excluded data point. At the end of resampling, the $n$ predictions are pooled to produce a single performance statistic. 

Leave-one-out methods are deficient compared to almost any other method. For anything but pathologically small samples, LOO is computationally excessive and it may not have good statistical properties. Although the <span class="pkg">rsample</span> package contains a `loo_cv()` function, these objects are not generally integrated into the broader tidymodels frameworks.  

### Monte Carlo cross-validation {-}

Another variant of _V_-fold cross-validation is Monte Carlo cross-validation (MCCV, @xu2001monte). Like _V_-fold cross-validation, it allocates a fixed proportion of data to the assessment sets. The difference between MCCV and regular cross-validation is that, for MCCV, this proportion of the data is randomly selected each time. This results in assessment sets that are not mutually exclusive. To create these resampling objects: 


```r
mc_cv(ames_train, prop = 9/10, times = 20)
#> # Monte Carlo cross-validation (0.9/0.1) with 20 resamples  
#> # A tibble: 20 × 2
#>   splits             id        
#>   <list>             <chr>     
#> 1 <split [2107/235]> Resample01
#> 2 <split [2107/235]> Resample02
#> 3 <split [2107/235]> Resample03
#> 4 <split [2107/235]> Resample04
#> 5 <split [2107/235]> Resample05
#> 6 <split [2107/235]> Resample06
#> # … with 14 more rows
```
…
For our example, let's save the predictions in order to visualize the model fit and residuals: 


```r
keep_pred <- control_resamples(save_pred = TRUE, save_workflow = TRUE)

set.seed(1003)
rf_res <- 
  rf_wflow %>% 
  fit_resamples(resamples = ames_folds, control = keep_pred)
rf_res
#> # Resampling results
#> # 10-fold cross-validation 
#> # A tibble: 10 × 5
#>   splits             id     .metrics         .notes           .predictions      
#>   <list>             <chr>  <list>           <list>           <list>            
#> 1 <split [2107/235]> Fold01 <tibble [2 × 4]> <tibble [0 × 3]> <tibble [235 × 4]>
#> 2 <split [2107/235]> Fold02 <tibble [2 × 4]> <tibble [0 × 3]> <tibble [235 × 4]>
#> 3 <split [2108/234]> Fold03 <tibble [2 × 4]> <tibble [0 × 3]> <tibble [234 × 4]>
#> 4 <split [2108/234]> Fold04 <tibble [2 × 4]> <tibble [0 × 3]> <tibble [234 × 4]>
#> 5 <split [2108/234]> Fold05 <tibble [2 × 4]> <tibble [0 × 3]> <tibble [234 × 4]>
#> 6 <split [2108/234]> Fold06 <tibble [2 × 4]> <tibble [0 × 3]> <tibble [234 × 4]>
#> # … with 4 more rows
```
…
These are the resampling estimates averaged over the individual replicates. To get the metrics for each resample, use the option `summarize = FALSE` 

Notice how much more realistic the performance estimates are than the resubstitution estimates from earlier in the chapter!

To obtain the assessment set predictions: 


```r
assess_res <- collect_predictions(rf_res)
assess_res
#> # A tibble: 2,342 × 5
#>   id     .pred  .row Sale_Price .config             
#>   <chr>  <dbl> <int>      <dbl> <chr>               
#> 1 Fold01  5.10    10       5.09 Preprocessor1_Model1
#> 2 Fold01  4.92    27       4.90 Preprocessor1_Model1
#> 3 Fold01  5.20    47       5.08 Preprocessor1_Model1
#> 4 Fold01  5.13    52       5.10 Preprocessor1_Model1
#> 5 Fold01  5.13    59       5.10 Preprocessor1_Model1
#> 6 Fold01  5.13    63       5.11 Preprocessor1_Model1
#> # … with 2,336 more rows
```
…
# Test it using: 
# get_model(lm_fit)
```

Now let's apply this function to the ten resampled fits. The results of the extraction function is wrapped in a list object and returned in a tibble:


```r
ctrl <- control_resamples(extract = get_model)

lm_res <- lm_wflow %>%  fit_resamples(resamples = ames_folds, control = ctrl)
lm_res
#> # Resampling results
#> # 10-fold cross-validation 
#> # A tibble: 10 × 5
#>   splits             id     .metrics         .notes           .extracts       
#>   <list>             <chr>  <list>           <list>           <list>          
#> 1 <split [2107/235]> Fold01 <tibble [2 × 4]> <tibble [0 × 3]> <tibble [1 × 2]>
#> 2 <split [2107/235]> Fold02 <tibble [2 × 4]> <tibble [0 × 3]> <tibble [1 × 2]>
#> 3 <split [2108/234]> Fold03 <tibble [2 × 4]> <tibble [0 × 3]> <tibble [1 × 2]>
#> 4 <split [2108/234]> Fold04 <tibble [2 × 4]> <tibble [0 × 3]> <tibble [1 × 2]>
#> 5 <split [2108/234]> Fold05 <tibble [2 × 4]> <tibble [0 × 3]> <tibble [1 × 2]>
#> 6 <split [2108/234]> Fold06 <tibble [2 × 4]> <tibble [0 × 3]> <tibble [1 × 2]>
#> # … with 4 more rows
```

Now there is a `.extracts` column with nested tibbles. What do these contain? Let's find out by subsetting.


```r
lm_res$.extracts[[1]]
#> # A tibble: 1 × 2
#>   .extracts         .config             
#>   <list>            <chr>               
#> 1 <tibble [73 × 5]> Preprocessor1_Model1

# To get the results
lm_res$.extracts[[1]][[1]]
#> [[1]]
#> # A tibble: 73 × 5
#>   term                        estimate  std.error statistic   p.value
#>   <chr>                          <dbl>      <dbl>     <dbl>     <dbl>
#> 1 (Intercept)                 1.48     0.320         4.62   4.11e-  6
#> 2 Gr_Liv_Area                 0.000158 0.00000476   33.2    9.72e-194
#> 3 Year_Built                  0.00180  0.000149     12.1    1.57e- 32
#> 4 Neighborhood_College_Creek -0.00163  0.0373       -0.0438 9.65e-  1
#> 5 Neighborhood_Old_Town      -0.0757   0.0138       -5.47   4.92e-  8
#> 6 Neighborhood_Edwards       -0.109    0.0310       -3.53   4.21e-  4
#> # … with 67 more rows
```

This might appear to be a convoluted method for saving the model results. However, `extract` is flexible and does not assume that the user will only save a single tibble per resample. For example, the `tidy()` method might be run on the recipe as well as the model. In this case, a list of two tibbles will be returned. 

For our more simple example, all of the results can be flattened and collected using:


```r
all_coef <- map_dfr(lm_res$.extracts, ~ .x[[1]][[1]])
# Show the replicates for a single predictor:
filter(all_coef, term == "Year_Built")
#> # A tibble: 10 × 5
#>   term       estimate std.error statistic  p.value
#>   <chr>         <dbl>     <dbl>     <dbl>    <dbl>
#> 1 Year_Built  0.00180  0.000149      12.1 1.57e-32
#> 2 Year_Built  0.00180  0.000151      12.0 6.45e-32
#> 3 Year_Built  0.00185  0.000150      12.3 1.00e-33
#> 4 Year_Built  0.00183  0.000147      12.5 1.90e-34
#> 5 Year_Built  0.00184  0.000150      12.2 2.47e-33
#> 6 Year_Built  0.00180  0.000150      12.0 3.35e-32
#> # … with 4 more rows
```
…
