10.2 Resampling Methods | Tidy Modeling with R
…
Figure 10.3: V-fold cross-validation data usage.

When V = 3, the analysis sets are 2/3 of the training set and each assessment set is a distinct 1/3. The final resampling estimate of performance averages each of the V replicates.

Using V = 3 is a good choice to illustrate cross-validation but is a poor choice in practice because it is too low to generate reliable estimates. In practice, values of V are most often 5 or 10; we generally prefer 10-fold cross-validation as a default because it is large enough for good results in most situations.

What are the effects of changing V? Larger values result in resampling estimates with small bias but substantial variance. Smaller values of V have large bias but low variance. We prefer 10-fold since noise is reduced by replication, but bias is not.19.

The primary input is the training set data frame as well as the number of folds (defaulting to 10):

set.seed(1001)
ames_folds <- vfold_cv(ames_train, v = 10)
ames_folds
#> #  10-fold cross-validation 
#> # A tibble: 10 × 2
#>   splits             id    
#>   <list>             <chr> 
#> 1 <split [2107/235]> Fold01
#> 2 <split [2107/235]> Fold02
#> 3 <split [2108/234]> Fold03
#> 4 <split [2108/234]> Fold04
#> 5 <split [2108/234]> Fold05
#> 6 <split [2108/234]> Fold06
#> # … with 4 more rows
…
Figure 10.4: Relationship between the relative variance in performance estimates versus the number of cross-validation repeats.

Larger number of replicates tend to have less impact on the standard error. However, if the baseline value of \(\sigma\) is impractically large, the diminishing returns on replication may still be worth the extra computational costs.

To create repeats, invoke vfold_cv() with an additional argument repeats:

vfold_cv(ames_train, v = 10, repeats = 5)
#> #  10-fold cross-validation repeated 5 times 
#> # A tibble: 50 × 3
#>   splits             id      id2   
#>   <list>             <chr>   <chr> 
#> 1 <split [2107/235]> Repeat1 Fold01
#> 2 <split [2107/235]> Repeat1 Fold02
#> 3 <split [2108/234]> Repeat1 Fold03
#> 4 <split [2108/234]> Repeat1 Fold04
#> 5 <split [2108/234]> Repeat1 Fold05
#> 6 <split [2108/234]> Repeat1 Fold06
#> # … with 44 more rows

Leave-one-out cross-validation

One variation of cross-validation is leave-one-out (LOO) cross-validation where V is the number of data points in the training set. If there are \(n\) training set samples, \(n\) models are fit using \(n-1\) rows of the training set. Each model predicts the single excluded data point. At the end of resampling, the \(n\) predictions are pooled to produce a single performance statistic.

Leave-one-out methods are deficient compared to almost any other method. For anything but pathologically small samples, LOO is computationally excessive and it may not have good statistical properties. Although the rsample package contains a loo_cv() function, these objects are not generally integrated into the broader tidymodels frameworks.

Monte Carlo cross-validation

Another variant of V-fold cross-validation is Monte Carlo cross-validation (MCCV, Xu and Liang (2001)). Like V-fold cross-validation, it allocates a fixed proportion of data to the assessment sets. The difference between MCCV and regular cross-validation is that, for MCCV, this proportion of the data is randomly selected each time. This results in assessment sets that are not mutually exclusive. To create these resampling objects:

mc_cv(ames_train, prop = 9/10, times = 20)
#> # Monte Carlo cross-validation (0.9/0.1) with 20 resamples  
#> # A tibble: 20 × 2
#>   splits             id        
#>   <list>             <chr>     
#> 1 <split [2107/235]> Resample01
#> 2 <split [2107/235]> Resample02
#> 3 <split [2107/235]> Resample03
#> 4 <split [2107/235]> Resample04
#> 5 <split [2107/235]> Resample05
#> 6 <split [2107/235]> Resample06
#> # … with 14 more rows
…
