10.3 Estimating Performance | Tidy Modeling with R
…
save_pred: A logical for saving the assessment set predictions.

For our example, let’s save the predictions in order to visualize the model fit and residuals:

keep_pred <- control_resamples(save_pred = TRUE, save_workflow = TRUE)

set.seed(1003)
rf_res <- 
  rf_wflow %>% 
  fit_resamples(resamples = ames_folds, control = keep_pred)
rf_res
#> # Resampling results
#> # 10-fold cross-validation 
#> # A tibble: 10 × 5
#>   splits             id     .metrics         .notes           .predictions      
#>   <list>             <chr>  <list>           <list>           <list>            
#> 1 <split [2107/235]> Fold01 <tibble [2 × 4]> <tibble [0 × 3]> <tibble [235 × 4]>
#> 2 <split [2107/235]> Fold02 <tibble [2 × 4]> <tibble [0 × 3]> <tibble [235 × 4]>
#> 3 <split [2108/234]> Fold03 <tibble [2 × 4]> <tibble [0 × 3]> <tibble [234 × 4]>
#> 4 <split [2108/234]> Fold04 <tibble [2 × 4]> <tibble [0 × 3]> <tibble [234 × 4]>
#> 5 <split [2108/234]> Fold05 <tibble [2 × 4]> <tibble [0 × 3]> <tibble [234 × 4]>
#> 6 <split [2108/234]> Fold06 <tibble [2 × 4]> <tibble [0 × 3]> <tibble [234 × 4]>
#> # … with 4 more rows
…
These are the resampling estimates averaged over the individual replicates. To get the metrics for each resample, use the option summarize = FALSE

Notice how much more realistic the performance estimates are than the resubstitution estimates from earlier in the chapter!

To obtain the assessment set predictions:

assess_res <- collect_predictions(rf_res)
assess_res
#> # A tibble: 2,342 × 5
#>   id     .pred  .row Sale_Price .config             
#>   <chr>  <dbl> <int>      <dbl> <chr>               
#> 1 Fold01  5.10    10       5.09 Preprocessor1_Model1
#> 2 Fold01  4.92    27       4.90 Preprocessor1_Model1
#> 3 Fold01  5.20    47       5.08 Preprocessor1_Model1
#> 4 Fold01  5.13    52       5.10 Preprocessor1_Model1
#> 5 Fold01  5.13    59       5.10 Preprocessor1_Model1
#> 6 Fold01  5.13    63       5.11 Preprocessor1_Model1
#> # … with 2,336 more rows
…
