13.2 Evaluating the Grid | Tidy Modeling with R
…
To start, let’s evaluate a regular grid with three levels across the resamples:

roc_res <- metric_set(roc_auc)
set.seed(1305)
mlp_reg_tune <-
  mlp_wflow %>%
  tune_grid(
    cell_folds,
    grid = mlp_param %>% grid_regular(levels = 3),
    metrics = roc_res
  )
mlp_reg_tune
#> # Tuning results
#> # 10-fold cross-validation 
#> # A tibble: 10 × 4
#>   splits             id     .metrics          .notes          
#>   <list>             <chr>  <list>            <list>          
#> 1 <split [1817/202]> Fold01 <tibble [81 × 8]> <tibble [0 × 3]>
#> 2 <split [1817/202]> Fold02 <tibble [81 × 8]> <tibble [0 × 3]>
#> 3 <split [1817/202]> Fold03 <tibble [81 × 8]> <tibble [0 × 3]>
#> 4 <split [1817/202]> Fold04 <tibble [81 × 8]> <tibble [0 × 3]>
#> 5 <split [1817/202]> Fold05 <tibble [81 × 8]> <tibble [0 × 3]>
#> 6 <split [1817/202]> Fold06 <tibble [81 × 8]> <tibble [0 × 3]>
#> # … with 4 more rows
…
set.seed(1306)
mlp_sfd_tune <-
  mlp_wflow %>%
  tune_grid(
    cell_folds,
    grid = 20,
    # Pass in the parameter object to use the appropriate range: 
    param_info = mlp_param,
    metrics = roc_res
  )
mlp_sfd_tune
#> # Tuning results
#> # 10-fold cross-validation 
#> # A tibble: 10 × 4
#>   splits             id     .metrics          .notes          
#>   <list>             <chr>  <list>            <list>          
#> 1 <split [1817/202]> Fold01 <tibble [20 × 8]> <tibble [0 × 3]>
#> 2 <split [1817/202]> Fold02 <tibble [20 × 8]> <tibble [0 × 3]>
#> 3 <split [1817/202]> Fold03 <tibble [20 × 8]> <tibble [0 × 3]>
#> 4 <split [1817/202]> Fold04 <tibble [20 × 8]> <tibble [0 × 3]>
#> 5 <split [1817/202]> Fold05 <tibble [20 × 8]> <tibble [0 × 3]>
#> 6 <split [1817/202]> Fold06 <tibble [20 × 8]> <tibble [0 × 3]>
#> # … with 4 more rows
…
