…
How well do the data fit on the test set? We can `predict()` for the test set to find both predictions and prediction intervals:


```r
res_test <-
  predict(lm_fit, Chicago_test) %>%
  bind_cols(
    predict(lm_fit, Chicago_test, type = "pred_int"),
    Chicago_test
  )

res_test %>% select(date, ridership, starts_with(".pred"))
#> # A tibble: 14 × 5
#>   date       ridership .pred .pred_lower .pred_upper
#>   <date>         <dbl> <dbl>       <dbl>       <dbl>
#> 1 2016-08-15     20.6  20.3        16.2         24.5
#> 2 2016-08-16     21.0  21.3        17.1         25.4
#> 3 2016-08-17     21.0  21.4        17.3         25.6
#> 4 2016-08-18     21.3  21.4        17.3         25.5
#> 5 2016-08-19     20.4  20.9        16.7         25.0
#> 6 2016-08-20      6.22  7.52        3.34        11.7
#> # … with 8 more rows
…
Given the scale of the ridership numbers, these results look particularly good for such a simple model. If this model were deployed, how well would it have done a few years later in June of 2020? The model successfully makes a prediction, as a predictive model almost always will when given input data:


```r
res_2020 <-
  predict(lm_fit, Chicago_2020) %>%
  bind_cols(
    predict(lm_fit, Chicago_2020, type = "pred_int"),
    Chicago_2020
  ) 

res_2020 %>% select(date, contains(".pred"))
#> # A tibble: 14 × 4
#>   date       .pred .pred_lower .pred_upper
#>   <date>     <dbl>       <dbl>       <dbl>
#> 1 2020-06-01 20.1        15.9         24.3
#> 2 2020-06-02 21.4        17.2         25.6
#> 3 2020-06-03 21.5        17.3         25.6
#> 4 2020-06-04 21.3        17.1         25.4
#> 5 2020-06-05 20.7        16.6         24.9
#> 6 2020-06-06  9.04        4.88        13.2
#> # … with 8 more rows
```

The prediction intervals are about the same width, even though these data are well beyond the time period of the original training set. However, given the global pandemic in 2020, the performance on these data are abysmal: 


```r
res_2020 %>% select(date, ridership, starts_with(".pred"))
#> # A tibble: 14 × 5
#>   date       ridership .pred .pred_lower .pred_upper
#>   <date>         <dbl> <dbl>       <dbl>       <dbl>
#> 1 2020-06-01     0.002 20.1        15.9         24.3
#> 2 2020-06-02     0.005 21.4        17.2         25.6
#> 3 2020-06-03     0.566 21.5        17.3         25.6
#> 4 2020-06-04     1.66  21.3        17.1         25.4
#> 5 2020-06-05     1.95  20.7        16.6         24.9
#> 6 2020-06-06     1.08   9.04        4.88        13.2
#> # … with 8 more rows
…
<div class="figure" style="text-align: center">
<img src="figures/ap-autoplot-1.png" alt="The results of using the `autoplot()` method on an applicable object." width="70%" />
<p class="caption">(\#fig:ap-autoplot)The results of using the `autoplot()` method on an applicable object.</p>
</div>

The x-axis shows the values of the distance and the y-axis displays the distribution's percentiles. For example, half of the training set samples had distances less than 3.7. 

To compute the percentiles for new data, the `score()` function works in the same way as `predict()`: 



```r
score(pca_stat, Chicago_test) %>% select(starts_with("distance"))
#> # A tibble: 14 × 2
#>   distance distance_pctl
#>      <dbl>         <dbl>
#> 1     4.88          66.7
#> 2     5.21          71.4
#> 3     5.19          71.1
#> 4     5.00          68.5
#> 5     4.36          59.3
#> 6     4.10          55.2
#> # … with 8 more rows
```

These seem fairly reasonable. For the 2020 data: 



```r
score(pca_stat, Chicago_2020) %>% select(starts_with("distance"))
#> # A tibble: 14 × 2
#>   distance distance_pctl
#>      <dbl>         <dbl>
#> 1     9.39          99.8
#> 2     9.40          99.8
#> 3     9.30          99.7
#> 4     9.30          99.7
#> 5     9.29          99.7
#> 6    10.1            1  
#> # … with 8 more rows
```
…
