21.4 A More Complex Model | Tidy Modeling with R
…
First, we create the 4,000 model fits:

zip_form <- art ~ fem + mar + kid5 + ment | fem + mar + kid5 + phd + ment
glm_form <- art ~ fem + mar + kid5 + ment

set.seed(2104)
bootstrap_models <-
  bootstraps(bioChemists, times = 2000, apparent = TRUE) %>%
  mutate(
    glm = map(splits, ~ fit(log_lin_spec,       glm_form, data = analysis(.x))),
    zip = map(splits, ~ fit(zero_inflated_spec, zip_form, data = analysis(.x)))
  )
bootstrap_models
#> # Bootstrap sampling with apparent sample 
#> # A tibble: 2,001 × 4
#>   splits            id            glm      zip     
#>   <list>            <chr>         <list>   <list>  
#> 1 <split [915/355]> Bootstrap0001 <fit[+]> <fit[+]>
#> 2 <split [915/333]> Bootstrap0002 <fit[+]> <fit[+]>
#> 3 <split [915/337]> Bootstrap0003 <fit[+]> <fit[+]>
#> 4 <split [915/344]> Bootstrap0004 <fit[+]> <fit[+]>
#> 5 <split [915/351]> Bootstrap0005 <fit[+]> <fit[+]>
#> 6 <split [915/354]> Bootstrap0006 <fit[+]> <fit[+]>
#> # … with 1,995 more rows
…
