9.4 Multi-Class Classification Metrics | Tidy Modeling with R
…
21.6 Chapter Summary

Appendix

A Recommended Preprocessing

REFERENCES

9.4 Multi-Class Classification Metrics

What about data with three or more classes? To demonstrate, let’s explore a different example data set that has four classes:

data(hpc_cv)
tibble(hpc_cv)
#> # A tibble: 3,467 × 7
#>   obs   pred     VF      F       M          L Resample
#>   <fct> <fct> <dbl>  <dbl>   <dbl>      <dbl> <chr>   
#> 1 VF    VF    0.914 0.0779 0.00848 0.0000199  Fold01  
#> 2 VF    VF    0.938 0.0571 0.00482 0.0000101  Fold01  
#> 3 VF    VF    0.947 0.0495 0.00316 0.00000500 Fold01  
#> 4 VF    VF    0.929 0.0653 0.00579 0.0000156  Fold01  
#> 5 VF    VF    0.942 0.0543 0.00381 0.00000729 Fold01  
#> 6 VF    VF    0.951 0.0462 0.00272 0.00000384 Fold01  
#> # … with 3,461 more rows
…
Macro-weighted averaging is also available as an option for applying this metric to a multi-class outcome:

roc_auc(hpc_cv, obs, VF, F, M, L, estimator = "macro_weighted")
#> # A tibble: 1 × 3
#>   .metric .estimator     .estimate
#>   <chr>   <chr>              <dbl>
#> 1 roc_auc macro_weighted     0.868

Finally, all of these performance metrics can be computed using dplyr groupings. Recall that these data have a column for the resampling groups. We haven’t yet discussed resampling in detail, but notice how we can pass a grouped data frame to the metric function to compute the metrics for each group:

hpc_cv %>% 
  group_by(Resample) %>% 
  accuracy(obs, pred)
#> # A tibble: 10 × 4
#>   Resample .metric  .estimator .estimate
#>   <chr>    <chr>    <chr>          <dbl>
#> 1 Fold01   accuracy multiclass     0.726
#> 2 Fold02   accuracy multiclass     0.712
#> 3 Fold03   accuracy multiclass     0.758
#> 4 Fold04   accuracy multiclass     0.712
#> 5 Fold05   accuracy multiclass     0.712
#> 6 Fold06   accuracy multiclass     0.697
#> # … with 4 more rows
…
